Estatística Computacional (PPGBC0030)
…
---

## Iris Flower

- Carregando o conjunto ".brown[Iris Flower]" e criando um objeto chamado "**data**"...

```r
library(readr)
(data <- read_csv(file = "data/open/Iris.csv", col_types = "ddddf"))
```

```
## # A tibble: 150 × 5
##    SepalLengthCm SepalWidthCm PetalLengthCm PetalWidthCm Species    
##            <dbl>        <dbl>         <dbl>        <dbl> <fct>      
##  1           5.1          3.5           1.4          0.2 Iris-setosa
##  2           4.9          3             1.4          0.2 Iris-setosa
##  3           4.7          3.2           1.3          0.2 Iris-setosa
##  4           4.6          3.1           1.5          0.2 Iris-setosa
##  5           5            3.6           1.4          0.2 Iris-setosa
##  6           5.4          3.9           1.7          0.4 Iris-setosa
##  7           4.6          3.4           1.4          0.3 Iris-setosa
##  8           5            3.4           1.5          0.2 Iris-setosa
##  9           4.4          2.9           1.4          0.2 Iris-setosa
## 10           4.9          3.1           1.5          0.1 Iris-setosa
## # ℹ 140 more rows
```
…
