Estatística Computacional (PPGBC0030)
…
--

.pull-right-10[
.font90[

```r
library(readr)
(data <- 
    read_csv("data/DIC_Ficticio2.csv", 
             col_types = "ffdd"))
```

```
## # A tibble: 25 × 4
##    Sub    Rep      CR   CPA
##    <fct>  <fct> <dbl> <dbl>
##  1 FC     1       5    23.2
##  2 FC     2       5.5  23.7
##  3 FC     3       6    23.2
##  4 FC     4       4    22.2
##  5 FC     5       4.5  22.7
##  6 A + EB 1       6.5  25.7
##  7 A + EB 2       8    26.2
##  8 A + EB 3       8    26.2
##  9 A + EB 4       7    25.2
## 10 A + EB 5       7.5  25.7
## # ℹ 15 more rows
```
…
